112-1/DIGITAL SYSTEM DESIGN/Lab/Lab 6/step_1/simulation/qsim/step_1.msim.vcd
$comment
	File created using the following command:
		vcd file step_1.msim.vcd -direction
$end
$date
	Tue Oct 31 23:35:19 2023
$end
$version
	ModelSim Version 10.1d
$end
$timescale
	1ps
$end
$scope module step_1_vlg_vec_tst $end
$var reg 1 ! A $end
$var reg 1 " B $end
$var reg 1 # C $end
$var reg 1 $ D $end
$var wire 1 % F $end
$var wire 1 & F_complement $end
$var wire 1 ' sampler $end
$scope module i1 $end
$var wire 1 ( gnd $end
$var wire 1 ) vcc $end
$var wire 1 * unknown $end
$var tri1 1 + devclrn $end
$var tri1 1 , devpor $end
$var tri1 1 - devoe $end
$var wire 1 . A~input_o $end
$var wire 1 / F~output_o $end
$var wire 1 0 F_complement~output_o $end
$var wire 1 1 B~input_o $end
$var wire 1 2 D~input_o $end
$var wire 1 3 C~input_o $end
$var wire 1 4 inst3~combout $end
$upscope $end
$upscope $end
$enddefinitions $end
#0
$dumpvars
0!
0"
0#
0$
0%
1&
x'
0(
1)
x*
1+
1,
1-
0.
0/
10
01
02
03
04
$end
#20000
1$
12
0'
14
1/
00
1%
0&
#40000
1#
0$
13
02
1'
#60000
1$
12
0'
#80000
1"
0#
0$
11
03
02
1'
04
0/
10
0%
1&
#100000
1$
12
0'
14
1/
00
1%
0&
#120000
1#
0$
13
02
1'
04
0/
10
0%
1&
#140000
1$
12
0'
14
1/
00
1%
0&
#160000
1!
0"
0#
0$
1.
01
03
02
1'
04
0/
10
0%
1&
#180000
1$
12
0'
14
1/
00
1%
0&
#200000
1#
0$
13
02
1'
#220000
1$
12
0'
#240000
1"
0#
0$
11
03
02
1'
04
0/
10
0%
1&
#260000
1$
12
0'
14
1/
00
1%
0&
#280000
1#
0$
13
02
1'
04
0/
10
0%
1&
#300000
1$
12
0'
14
1/
00
1%
0&
#320000
0!
0"
0#
0$
0.
01
03
02
1'
04
0/
10
0%
1&
#340000
1$
12
0'
14
1/
00
1%
0&
#360000
1#
0$
13
02
1'
#380000
1$
12
0'
#400000
1"
0#
0$
11
03
02
1'
04
0/
10
0%
1&
#420000
1$
12
0'
14
1/
00
1%
0&
#440000
1#
0$
13
02
1'
04
0/
10
0%
1&
#460000
1$
12
0'
14
1/
00
1%
0&
#480000
1!
0"
0#
0$
1.
01
03
02
1'
04
0/
10
0%
1&
#500000
1$
12
0'
14
1/
00
1%
0&
#520000
1#
0$
13
02
1'
#540000
1$
12
0'
#560000
1"
0#
0$
11
03
02
1'
04
0/
10
0%
1&
#580000
1$
12
0'
14
1/
00
1%
0&
#600000
1#
0$
13
02
1'
04
0/
10
0%
1&
#620000
1$
12
0'
14
1/
00
1%
0&
#640000
0!
0"
0#
0$
0.
01
03
02
1'
04
0/
10
0%
1&
#660000
1$
12
0'
14
1/
00
1%
0&
#680000
1#
0$
13
02
1'
#700000
1$
12
0'
#720000
1"
0#
0$
11
03
02
1'
04
0/
10
0%
1&
#740000
1$
12
0'
14
1/
00
1%
0&
#760000
1#
0$
13
02
1'
04
0/
10
0%
1&
#780000
1$
12
0'
14
1/
00
1%
0&
#800000
1!
0"
0#
0$
1.
01
03
02
1'
04
0/
10
0%
1&
#820000
1$
12
0'
14
1/
00
1%
0&
#840000
1#
0$
13
02
1'
#860000
1$
12
0'
#880000
1"
0#
0$
11
03
02
1'
04
0/
10
0%
1&
#900000
1$
12
0'
14
1/
00
1%
0&
#920000
1#
0$
13
02
1'
04
0/
10
0%
1&
#940000
1$
12
0'
14
1/
00
1%
0&
#960000
0!
0"
0#
0$
0.
01
03
02
1'
04
0/
10
0%
1&
#980000
1$
12
0'
14
1/
00
1%
0&
