112-1/DIGITAL SYSTEM DESIGN/Lab/Lab 9/step_2/simulation/qsim/step_2.msim.vcd
$comment
	File created using the following command:
		vcd file step_2.msim.vcd -direction
$end
$date
	Tue Nov 28 23:20:04 2023
$end
$version
	ModelSim Version 10.1d
$end
$timescale
	1ps
$end
$scope module step2_vlg_vec_tst $end
$var reg 2 ! KEY [1:0] $end
$var reg 8 " SW [9:2] $end
$var wire 1 # HEX2 [0] $end
$var wire 1 $ HEX2 [1] $end
$var wire 1 % HEX2 [2] $end
$var wire 1 & HEX2 [3] $end
$var wire 1 ' HEX2 [4] $end
$var wire 1 ( HEX2 [5] $end
$var wire 1 ) HEX2 [6] $end
$var wire 1 * HEX3 [0] $end
$var wire 1 + HEX3 [1] $end
$var wire 1 , HEX3 [2] $end
$var wire 1 - HEX3 [3] $end
$var wire 1 . HEX3 [4] $end
$var wire 1 / HEX3 [5] $end
$var wire 1 0 HEX3 [6] $end
$var wire 1 1 sampler $end
$scope module i1 $end
$var wire 1 2 gnd $end
$var wire 1 3 vcc $end
$var wire 1 4 unknown $end
$var tri1 1 5 devclrn $end
$var tri1 1 6 devpor $end
$var tri1 1 7 devoe $end
$var wire 1 8 HEX3[6]~output_o $end
$var wire 1 9 HEX3[5]~output_o $end
$var wire 1 : HEX3[4]~output_o $end
$var wire 1 ; HEX3[3]~output_o $end
$var wire 1 < HEX3[2]~output_o $end
$var wire 1 = HEX3[1]~output_o $end
$var wire 1 > HEX3[0]~output_o $end
$var wire 1 ? HEX2[6]~output_o $end
$var wire 1 @ HEX2[5]~output_o $end
$var wire 1 A HEX2[4]~output_o $end
$var wire 1 B HEX2[3]~output_o $end
$var wire 1 C HEX2[2]~output_o $end
$var wire 1 D HEX2[1]~output_o $end
$var wire 1 E HEX2[0]~output_o $end
$var wire 1 F KEY[1]~input_o $end
$var wire 1 G SW[6]~input_o $end
$var wire 1 H SW[8]~input_o $end
$var wire 1 I SW[7]~input_o $end
$var wire 1 J SW[9]~input_o $end
$var wire 1 K WideOr6~0_combout $end
$var wire 1 L HEX3~0_combout $end
$var wire 1 M WideOr5~0_combout $end
$var wire 1 N HEX3~1_combout $end
$var wire 1 O WideOr4~0_combout $end
$var wire 1 P HEX3~2_combout $end
$var wire 1 Q WideOr3~0_combout $end
$var wire 1 R HEX3~3_combout $end
$var wire 1 S WideOr2~0_combout $end
$var wire 1 T HEX3~4_combout $end
$var wire 1 U WideOr1~0_combout $end
$var wire 1 V HEX3~5_combout $end
$var wire 1 W WideOr0~0_combout $end
$var wire 1 X HEX3~6_combout $end
$var wire 1 Y KEY[0]~input_o $end
$var wire 1 Z SW[5]~input_o $end
$var wire 1 [ SW[3]~input_o $end
$var wire 1 \ SW[2]~input_o $end
$var wire 1 ] SW[4]~input_o $end
$var wire 1 ^ WideOr13~0_combout $end
$var wire 1 _ HEX2~0_combout $end
$var wire 1 ` WideOr12~0_combout $end
$var wire 1 a HEX2~1_combout $end
$var wire 1 b WideOr11~0_combout $end
$var wire 1 c HEX2~2_combout $end
$var wire 1 d WideOr10~0_combout $end
$var wire 1 e HEX2~3_combout $end
$var wire 1 f WideOr9~0_combout $end
$var wire 1 g HEX2~4_combout $end
$var wire 1 h WideOr8~0_combout $end
$var wire 1 i HEX2~5_combout $end
$var wire 1 j WideOr7~0_combout $end
$var wire 1 k HEX2~6_combout $end
$upscope $end
$upscope $end
$enddefinitions $end
#0
$dumpvars
b0 !
b0 "
1)
0(
0'
0&
0%
0$
0#
10
0/
0.
0-
0,
0+
0*
x1
02
13
x4
15
16
17
18
09
0:
0;
0<
0=
0>
1?
0@
0A
0B
0C
0D
0E
0F
0G
0H
0I
0J
0K
1L
0M
0N
0O
0P
0Q
0R
0S
0T
0U
0V
0W
0X
0Y
0Z
0[
0\
0]
0^
1_
0`
0a
0b
0c
0d
0e
0f
0g
0h
0i
0j
0k
$end
#10000
b1 "
1\
01
1j
1d
1b
1`
1k
1e
1c
1a
1E
1B
1A
1@
1#
1&
1'
1(
#20000
b11 "
b10 "
0\
1[
11
0j
1f
0d
0b
1^
0k
1g
0e
0c
0_
0E
1C
0B
0A
0?
0#
1%
0&
0'
0)
#30000
b11 "
1\
01
0f
1b
0g
1c
0C
1A
0%
1'
#40000
b111 "
b101 "
b100 "
0\
0[
1]
11
1j
1d
0`
1k
1e
0a
1E
1B
0@
1#
1&
0(
#50000
b101 "
1\
01
0j
1h
0d
0k
1i
0e
0E
1D
0B
0#
1$
0&
#60000
b111 "
b110 "
0\
1[
11
0b
0c
0A
0'
#70000
b111 "
1\
01
0h
1d
1b
0^
0i
1e
1c
1_
0D
1B
1A
1?
0$
1&
1'
1)
#80000
b1111 "
b1011 "
b1001 "
b1000 "
0\
0[
0]
1Z
11
0d
0b
1^
0e
0c
0_
0B
0A
0?
0&
0'
0)
#90000
b1001 "
1\
01
1b
1c
1A
1'
#100000
b1011 "
b1010 "
0\
1[
11
1d
0b
1e
0c
1B
0A
1&
0'
#110000
b1011 "
1\
01
1j
1h
0d
1k
1i
0e
1E
1D
0B
1#
1$
0&
#120000
b1111 "
b1101 "
b1100 "
0\
0[
1]
11
0j
1f
0^
0k
1g
1_
0E
1C
1?
0#
1%
1)
#130000
b1101 "
1\
01
1j
0h
0f
1`
1^
1k
0i
0g
1a
0_
1E
0D
0C
1@
0?
1#
0$
0%
1(
0)
#140000
b1111 "
b1110 "
0\
1[
11
0j
1h
1f
0`
0k
1i
1g
0a
0E
1D
1C
0@
0#
1$
1%
0(
#150000
b1111 "
1\
01
1d
1e
1B
1&
#160000
b11111 "
b10111 "
b10011 "
b10001 "
b10000 "
0\
0[
0]
0Z
1G
11
0h
0f
0d
0^
1W
1Q
1O
1M
0i
0g
0e
1_
1X
1R
1P
1N
0D
0C
0B
1?
1>
1;
1:
19
0$
0%
0&
1)
1*
1-
1.
1/
#170000
b10001 "
1\
01
1j
1d
1b
1`
1k
1e
1c
1a
1E
1B
1A
1@
1#
1&
1'
1(
#180000
b10011 "
b10010 "
0\
1[
11
0j
1f
0d
0b
1^
0k
1g
0e
0c
0_
0E
1C
0B
0A
0?
0#
1%
0&
0'
0)
#190000
b10011 "
1\
01
0f
1b
0g
1c
0C
1A
0%
1'
#200000
b10111 "
b10101 "
b10100 "
0\
0[
1]
11
1j
1d
0`
1k
1e
0a
1E
1B
0@
1#
1&
0(
#210000
b10101 "
1\
01
0j
1h
0d
0k
1i
0e
0E
1D
0B
0#
1$
0&
#220000
b10111 "
b10110 "
0\
1[
11
0b
0c
0A
0'
#230000
b10111 "
1\
01
0h
1d
1b
0^
0i
1e
1c
1_
0D
1B
1A
1?
0$
1&
1'
1)
#240000
b11111 "
b11011 "
b11001 "
b11000 "
0\
0[
0]
1Z
11
0d
0b
1^
0e
0c
0_
0B
0A
0?
0&
0'
0)
#250000
b11001 "
1\
01
1b
1c
1A
1'
#260000
b11011 "
b11010 "
0\
1[
11
1d
0b
1e
0c
1B
0A
1&
0'
#270000
b11011 "
1\
01
1j
1h
0d
1k
1i
0e
1E
1D
0B
1#
1$
0&
#280000
b11111 "
b11101 "
b11100 "
0\
0[
1]
11
0j
1f
0^
0k
1g
1_
0E
1C
1?
0#
1%
1)
#290000
b11101 "
1\
01
1j
0h
0f
1`
1^
1k
0i
0g
1a
0_
1E
0D
0C
1@
0?
1#
0$
0%
1(
0)
#300000
b11111 "
b11110 "
0\
1[
11
0j
1h
1f
0`
0k
1i
1g
0a
0E
1D
1C
0@
0#
1$
1%
0(
#310000
b11111 "
1\
01
1d
1e
1B
1&
#320000
b111111 "
b101111 "
b100111 "
b100011 "
b100001 "
b100000 "
0\
0[
0]
0Z
0G
1I
11
0h
0f
0d
0^
0W
1S
0Q
0O
1K
0i
0g
0e
1_
0X
1T
0R
0P
0L
0D
0C
0B
1?
0>
1<
0;
0:
08
0$
0%
0&
1)
0*
1,
0-
0.
00
#330000
b100001 "
1\
01
1j
1d
1b
1`
1k
1e
1c
1a
1E
1B
1A
1@
1#
1&
1'
1(
#340000
b100011 "
b100010 "
0\
1[
11
0j
1f
0d
0b
1^
0k
1g
0e
0c
0_
0E
1C
0B
0A
0?
0#
1%
0&
0'
0)
#350000
b100011 "
1\
01
0f
1b
0g
1c
0C
1A
0%
1'
#360000
b100111 "
b100101 "
b100100 "
0\
0[
1]
11
1j
1d
0`
1k
1e
0a
1E
1B
0@
1#
1&
0(
#370000
b100101 "
1\
01
0j
1h
0d
0k
1i
0e
0E
1D
0B
0#
1$
0&
#380000
b100111 "
b100110 "
0\
1[
11
0b
0c
0A
0'
#390000
b100111 "
1\
01
0h
1d
1b
0^
0i
1e
1c
1_
0D
1B
1A
1?
0$
1&
1'
1)
#400000
b101111 "
b101011 "
b101001 "
b101000 "
0\
0[
0]
1Z
11
0d
0b
1^
0e
0c
0_
0B
0A
0?
0&
0'
0)
#410000
b101001 "
1\
01
1b
1c
1A
1'
#420000
b101011 "
b101010 "
0\
1[
11
1d
0b
1e
0c
1B
0A
1&
0'
#430000
b101011 "
1\
01
1j
1h
0d
1k
1i
0e
1E
1D
0B
1#
1$
0&
#440000
b101111 "
b101101 "
b101100 "
0\
0[
1]
11
0j
1f
0^
0k
1g
1_
0E
1C
1?
0#
1%
1)
#450000
b101101 "
1\
01
1j
0h
0f
1`
1^
1k
0i
0g
1a
0_
1E
0D
0C
1@
0?
1#
0$
0%
1(
0)
#460000
b101111 "
b101110 "
0\
1[
11
0j
1h
1f
0`
0k
1i
1g
0a
0E
1D
1C
0@
0#
1$
1%
0(
#470000
b101111 "
1\
01
1d
1e
1B
1&
#480000
b111111 "
b110111 "
b110011 "
b110001 "
b110000 "
0\
0[
0]
0Z
1G
11
0h
0f
0d
0^
0S
1O
0i
0g
0e
1_
0T
1P
0D
0C
0B
1?
0<
1:
0$
0%
0&
1)
0,
1.
#490000
b110001 "
1\
01
1j
1d
1b
1`
1k
1e
1c
1a
1E
1B
1A
1@
1#
1&
1'
1(
#500000
b110011 "
b110010 "
0\
1[
11
0j
1f
0d
0b
1^
0k
1g
0e
0c
0_
0E
1C
0B
0A
0?
0#
1%
0&
0'
0)
#510000
b110011 "
1\
01
0f
1b
0g
1c
0C
1A
0%
1'
#520000
b110111 "
b110101 "
b110100 "
0\
0[
1]
11
1j
1d
0`
1k
1e
0a
1E
1B
0@
1#
1&
0(
#530000
b110101 "
1\
01
0j
1h
0d
0k
1i
0e
0E
1D
0B
0#
1$
0&
#540000
b110111 "
b110110 "
0\
1[
11
0b
0c
0A
0'
#550000
b110111 "
1\
01
0h
1d
1b
0^
0i
1e
1c
1_
0D
1B
1A
1?
0$
1&
1'
1)
#560000
b111111 "
b111011 "
b111001 "
b111000 "
0\
0[
0]
1Z
11
0d
0b
1^
0e
0c
0_
0B
0A
0?
0&
0'
0)
#570000
b111001 "
1\
01
1b
1c
1A
1'
#580000
b111011 "
b111010 "
0\
1[
11
1d
0b
1e
0c
1B
0A
1&
0'
#590000
b111011 "
1\
01
1j
1h
0d
1k
1i
0e
1E
1D
0B
1#
1$
0&
#600000
b111111 "
b111101 "
b111100 "
0\
0[
1]
11
0j
1f
0^
0k
1g
1_
0E
1C
1?
0#
1%
1)
#610000
b111101 "
1\
01
1j
0h
0f
1`
1^
1k
0i
0g
1a
0_
1E
0D
0C
1@
0?
1#
0$
0%
1(
0)
#620000
b111111 "
b111110 "
0\
1[
11
0j
1h
1f
0`
0k
1i
1g
0a
0E
1D
1C
0@
0#
1$
1%
0(
#630000
b111111 "
1\
01
1d
1e
1B
1&
#640000
b1111111 "
b1011111 "
b1001111 "
b1000111 "
b1000011 "
b1000001 "
b1000000 "
0\
0[
0]
0Z
0G
0I
1H
11
0h
0f
0d
0^
1W
1Q
0M
0i
0g
0e
1_
1X
1R
0N
0D
0C
0B
1?
1>
1;
09
0$
0%
0&
1)
1*
1-
0/
#650000
b1000001 "
1\
01
1j
1d
1b
1`
1k
1e
1c
1a
1E
1B
1A
1@
1#
1&
1'
1(
#660000
b1000011 "
b1000010 "
0\
1[
11
0j
1f
0d
0b
1^
0k
1g
0e
0c
0_
0E
1C
0B
0A
0?
0#
1%
0&
0'
0)
#670000
b1000011 "
1\
01
0f
1b
0g
1c
0C
1A
0%
1'
#680000
b1000111 "
b1000101 "
b1000100 "
0\
0[
1]
11
1j
1d
0`
1k
1e
0a
1E
1B
0@
1#
1&
0(
#690000
b1000101 "
1\
01
0j
1h
0d
0k
1i
0e
0E
1D
0B
0#
1$
0&
#700000
b1000111 "
b1000110 "
0\
1[
11
0b
0c
0A
0'
#710000
b1000111 "
1\
01
0h
1d
1b
0^
0i
1e
1c
1_
0D
1B
1A
1?
0$
1&
1'
1)
#720000
b1001111 "
b1001011 "
b1001001 "
b1001000 "
0\
0[
0]
1Z
11
0d
0b
1^
0e
0c
0_
0B
0A
0?
0&
0'
0)
#730000
b1001001 "
1\
01
1b
1c
1A
1'
#740000
b1001011 "
b1001010 "
0\
1[
11
1d
0b
1e
0c
1B
0A
1&
0'
#750000
b1001011 "
1\
01
1j
1h
0d
1k
1i
0e
1E
1D
0B
1#
1$
0&
#760000
b1001111 "
b1001101 "
b1001100 "
0\
0[
1]
11
0j
1f
0^
0k
1g
1_
0E
1C
1?
0#
1%
1)
#770000
b1001101 "
1\
01
1j
0h
0f
1`
1^
1k
0i
0g
1a
0_
1E
0D
0C
1@
0?
1#
0$
0%
1(
0)
#780000
b1001111 "
b1001110 "
0\
1[
11
0j
1h
1f
0`
0k
1i
1g
0a
0E
1D
1C
0@
0#
1$
1%
0(
#790000
b1001111 "
1\
01
1d
1e
1B
1&
#800000
b1011111 "
b1010111 "
b1010011 "
b1010001 "
b1010000 "
0\
0[
0]
0Z
1G
11
0h
0f
0d
0^
0W
1U
0Q
0i
0g
0e
1_
0X
1V
0R
0D
0C
0B
1?
0>
1=
0;
0$
0%
0&
1)
0*
1+
0-
#810000
b1010001 "
1\
01
1j
1d
1b
1`
1k
1e
1c
1a
1E
1B
1A
1@
1#
1&
1'
1(
#820000
b1010011 "
b1010010 "
0\
1[
11
0j
1f
0d
0b
1^
0k
1g
0e
0c
0_
0E
1C
0B
0A
0?
0#
1%
0&
0'
0)
#830000
b1010011 "
1\
01
0f
1b
0g
1c
0C
1A
0%
1'
#840000
b1010111 "
b1010101 "
b1010100 "
0\
0[
1]
11
1j
1d
0`
1k
1e
0a
1E
1B
0@
1#
1&
0(
#850000
b1010101 "
1\
01
0j
1h
0d
0k
1i
0e
0E
1D
0B
0#
1$
0&
#860000
b1010111 "
b1010110 "
0\
1[
11
0b
0c
0A
0'
#870000
b1010111 "
1\
01
0h
1d
1b
0^
0i
1e
1c
1_
0D
1B
1A
1?
0$
1&
1'
1)
#880000
b1011111 "
b1011011 "
b1011001 "
b1011000 "
0\
0[
0]
1Z
11
0d
0b
1^
0e
0c
0_
0B
0A
0?
0&
0'
0)
#890000
b1011001 "
1\
01
1b
1c
1A
1'
#900000
b1011011 "
b1011010 "
0\
1[
11
1d
0b
1e
0c
1B
0A
1&
0'
#910000
b1011011 "
1\
01
1j
1h
0d
1k
1i
0e
1E
1D
0B
1#
1$
0&
#920000
b1011111 "
b1011101 "
b1011100 "
0\
0[
1]
11
0j
1f
0^
0k
1g
1_
0E
1C
1?
0#
1%
1)
#930000
b1011101 "
1\
01
1j
0h
0f
1`
1^
1k
0i
0g
1a
0_
1E
0D
0C
1@
0?
1#
0$
0%
1(
0)
#940000
b1011111 "
b1011110 "
0\
1[
11
0j
1h
1f
0`
0k
1i
1g
0a
0E
1D
1C
0@
0#
1$
1%
0(
#950000
b1011111 "
1\
01
1d
1e
1B
1&
#960000
b1111111 "
b1101111 "
b1100111 "
b1100011 "
b1100001 "
b1100000 "
0\
0[
0]
0Z
0G
1I
11
0h
0f
0d
0^
0O
0i
0g
0e
1_
0P
0D
0C
0B
1?
0:
0$
0%
0&
1)
0.
#970000
b1100001 "
1\
01
1j
1d
1b
1`
1k
1e
1c
1a
1E
1B
1A
1@
1#
1&
1'
1(
#980000
b1100011 "
b1100010 "
0\
1[
11
0j
1f
0d
0b
1^
0k
1g
0e
0c
0_
0E
1C
0B
0A
0?
0#
1%
0&
0'
0)
#990000
b1100011 "
1\
01
0f
1b
0g
1c
0C
1A
0%
1'
